 (                            )         )    *     
 )\ )  *   )   (       (   ( /(   (  ( /(  (  `    
(()/(` )  /(   )\      )\  )\())  )\ )\()) )\))(   
 /(_))( )(_)|(((_)(  (((_)((_)\ (((_|(_)\ ((_)()\  
(_)) (_(_()) )\ _ )\ )\___ _((_))\___ ((_)(_()((_) 
/ __||_   _| (_)_\(_|(/ __| || ((/ __/ _ \|  \/  | 
\__ \  | |    / _ \  | (__| __ || (_| (_) | |\/| | 
|___/  |_|   /_/ \_\  \___|_||_(_)___\___/|_|  |_|